127.0.0.1 - - [08/Oct/2019:12:02:11 +0200] "GET /hello?name=Gertrudis HTTP/1.1" 200 215 "-" "Mozilla/5.0 (Macintosh; Intel Mac OS X 10_14_6) AppleWebKit/605.1.15 (KHTML, like Gecko) Version/13.0.1 Safari/605.1.15"
127.0.0.1 - - [08/Oct/2019:12:02:11 +0200] "GET /favicon.ico HTTP/1.1" 200 - "https://twig.daw2m.com/hello?name=Gertrudis" "Mozilla/5.0 (Macintosh; Intel Mac OS X 10_14_6) AppleWebKit/605.1.15 (KHTML, like Gecko) Version/13.0.1 Safari/605.1.15"
127.0.0.1 - - [08/Oct/2019:12:12:33 +0200] "\x16\x03\x01\x02" 400 226 "-" "-"
127.0.0.1 - - [08/Oct/2019:12:12:33 +0200] "\x16\x03\x01" 400 226 "-" "-"
127.0.0.1 - - [08/Oct/2019:12:12:33 +0200] "\x16\x03\x01" 400 226 "-" "-"
127.0.0.1 - - [08/Oct/2019:12:12:34 +0200] "\x16\x03\x01\x02" 400 226 "-" "-"
127.0.0.1 - - [08/Oct/2019:12:12:34 +0200] "\x16\x03\x01" 400 226 "-" "-"
127.0.0.1 - - [08/Oct/2019:12:12:34 +0200] "\x16\x03\x01" 400 226 "-" "-"
127.0.0.1 - - [08/Oct/2019:12:12:34 +0200] "\x16\x03\x01\x02" 400 226 "-" "-"
127.0.0.1 - - [08/Oct/2019:12:12:34 +0200] "\x16\x03\x01" 400 226 "-" "-"
127.0.0.1 - - [08/Oct/2019:12:12:34 +0200] "\x16\x03\x01" 400 226 "-" "-"
127.0.0.1 - - [08/Oct/2019:12:12:35 +0200] "\x16\x03\x01\x02" 400 226 "-" "-"
127.0.0.1 - - [08/Oct/2019:12:12:35 +0200] "\x16\x03\x01" 400 226 "-" "-"
127.0.0.1 - - [08/Oct/2019:12:12:35 +0200] "\x16\x03\x01" 400 226 "-" "-"
127.0.0.1 - - [08/Oct/2019:12:12:50 +0200] "GET /hello?name=Gertrudis HTTP/1.1" 200 215 "-" "Mozilla/5.0 (Macintosh; Intel Mac OS X 10_14_6) AppleWebKit/605.1.15 (KHTML, like Gecko) Version/13.0.1 Safari/605.1.15"
127.0.0.1 - - [08/Oct/2019:12:12:50 +0200] "GET /hello?name=Gertrudis HTTP/1.1" 200 215 "-" "Mozilla/5.0 (Macintosh; Intel Mac OS X 10_14_6) AppleWebKit/605.1.15 (KHTML, like Gecko) Version/13.0.1 Safari/605.1.15"
127.0.0.1 - - [08/Oct/2019:12:12:51 +0200] "GET /hello?name=Gertrudis HTTP/1.1" 200 215 "-" "Mozilla/5.0 (Macintosh; Intel Mac OS X 10_14_6) AppleWebKit/605.1.15 (KHTML, like Gecko) Version/13.0.1 Safari/605.1.15"
127.0.0.1 - - [08/Oct/2019:12:38:03 +0200] "GET / HTTP/1.1" 200 120 "-" "Mozilla/5.0 (Macintosh; Intel Mac OS X 10_14_6) AppleWebKit/605.1.15 (KHTML, like Gecko) Version/13.0.1 Safari/605.1.15"
127.0.0.1 - - [08/Oct/2019:12:38:03 +0200] "GET /imgs/feo.jpg HTTP/1.1" 200 4861 "https://twig.daw2m.com/" "Mozilla/5.0 (Macintosh; Intel Mac OS X 10_14_6) AppleWebKit/605.1.15 (KHTML, like Gecko) Version/13.0.1 Safari/605.1.15"
127.0.0.1 - - [08/Oct/2019:12:38:03 +0200] "GET /favicon.ico HTTP/1.1" 200 - "https://twig.daw2m.com/" "Mozilla/5.0 (Macintosh; Intel Mac OS X 10_14_6) AppleWebKit/605.1.15 (KHTML, like Gecko) Version/13.0.1 Safari/605.1.15"
127.0.0.1 - - [08/Oct/2019:12:38:21 +0200] "GET /person?id=1 HTTP/1.1" 200 - "-" "Mozilla/5.0 (Macintosh; Intel Mac OS X 10_14_6) AppleWebKit/605.1.15 (KHTML, like Gecko) Version/13.0.1 Safari/605.1.15"
127.0.0.1 - - [08/Oct/2019:12:38:22 +0200] "GET /favicon.ico HTTP/1.1" 200 - "https://twig.daw2m.com/person?id=1" "Mozilla/5.0 (Macintosh; Intel Mac OS X 10_14_6) AppleWebKit/605.1.15 (KHTML, like Gecko) Version/13.0.1 Safari/605.1.15"
127.0.0.1 - - [08/Oct/2019:12:38:57 +0200] "GET /person?id=1 HTTP/1.1" 200 4 "-" "Mozilla/5.0 (Macintosh; Intel Mac OS X 10_14_6) AppleWebKit/605.1.15 (KHTML, like Gecko) Version/13.0.1 Safari/605.1.15"
127.0.0.1 - - [08/Oct/2019:12:41:12 +0200] "GET /person?id=1 HTTP/1.1" 200 25 "-" "Mozilla/5.0 (Macintosh; Intel Mac OS X 10_14_6) AppleWebKit/605.1.15 (KHTML, like Gecko) Version/13.0.1 Safari/605.1.15"
127.0.0.1 - - [08/Oct/2019:12:41:14 +0200] "GET /person?id=1 HTTP/1.1" 200 25 "-" "Mozilla/5.0 (Macintosh; Intel Mac OS X 10_14_6) AppleWebKit/605.1.15 (KHTML, like Gecko) Version/13.0.1 Safari/605.1.15"
127.0.0.1 - - [08/Oct/2019:12:41:14 +0200] "GET /person?id=2 HTTP/1.1" 200 25 "-" "Mozilla/5.0 (Macintosh; Intel Mac OS X 10_14_6) AppleWebKit/605.1.15 (KHTML, like Gecko) Version/13.0.1 Safari/605.1.15"
127.0.0.1 - - [08/Oct/2019:12:41:14 +0200] "GET /favicon.ico HTTP/1.1" 200 - "https://twig.daw2m.com/person?id=2" "Mozilla/5.0 (Macintosh; Intel Mac OS X 10_14_6) AppleWebKit/605.1.15 (KHTML, like Gecko) Version/13.0.1 Safari/605.1.15"
127.0.0.1 - - [08/Oct/2019:12:41:48 +0200] "GET /person?id=2 HTTP/1.1" 200 25 "-" "Mozilla/5.0 (Macintosh; Intel Mac OS X 10_14_6) AppleWebKit/605.1.15 (KHTML, like Gecko) Version/13.0.1 Safari/605.1.15"
127.0.0.1 - - [08/Oct/2019:12:41:48 +0200] "GET /person HTTP/1.1" 200 - "-" "Mozilla/5.0 (Macintosh; Intel Mac OS X 10_14_6) AppleWebKit/605.1.15 (KHTML, like Gecko) Version/13.0.1 Safari/605.1.15"
127.0.0.1 - - [08/Oct/2019:12:41:49 +0200] "GET /favicon.ico HTTP/1.1" 200 - "https://twig.daw2m.com/person" "Mozilla/5.0 (Macintosh; Intel Mac OS X 10_14_6) AppleWebKit/605.1.15 (KHTML, like Gecko) Version/13.0.1 Safari/605.1.15"
127.0.0.1 - - [08/Oct/2019:12:41:54 +0200] "GET /person?id=2 HTTP/1.1" 200 25 "-" "Mozilla/5.0 (Macintosh; Intel Mac OS X 10_14_6) AppleWebKit/605.1.15 (KHTML, like Gecko) Version/13.0.1 Safari/605.1.15"
127.0.0.1 - - [08/Oct/2019:12:41:55 +0200] "GET /person?id=3 HTTP/1.1" 200 25 "-" "Mozilla/5.0 (Macintosh; Intel Mac OS X 10_14_6) AppleWebKit/605.1.15 (KHTML, like Gecko) Version/13.0.1 Safari/605.1.15"
127.0.0.1 - - [08/Oct/2019:12:41:55 +0200] "GET /favicon.ico HTTP/1.1" 200 - "https://twig.daw2m.com/person?id=3" "Mozilla/5.0 (Macintosh; Intel Mac OS X 10_14_6) AppleWebKit/605.1.15 (KHTML, like Gecko) Version/13.0.1 Safari/605.1.15"
127.0.0.1 - - [08/Oct/2019:12:42:28 +0200] "GET /person?id=asdas HTTP/1.1" 200 29 "-" "Mozilla/5.0 (Macintosh; Intel Mac OS X 10_14_6) AppleWebKit/605.1.15 (KHTML, like Gecko) Version/13.0.1 Safari/605.1.15"
127.0.0.1 - - [08/Oct/2019:12:42:28 +0200] "GET /favicon.ico HTTP/1.1" 200 - "https://twig.daw2m.com/person?id=asdas" "Mozilla/5.0 (Macintosh; Intel Mac OS X 10_14_6) AppleWebKit/605.1.15 (KHTML, like Gecko) Version/13.0.1 Safari/605.1.15"
127.0.0.1 - - [08/Oct/2019:12:43:32 +0200] "GET /person?id=asdas HTTP/1.1" 200 - "-" "Mozilla/5.0 (Macintosh; Intel Mac OS X 10_14_6) AppleWebKit/605.1.15 (KHTML, like Gecko) Version/13.0.1 Safari/605.1.15"
127.0.0.1 - - [08/Oct/2019:12:43:42 +0200] "GET /person?id=asdas HTTP/1.1" 200 - "-" "Mozilla/5.0 (Macintosh; Intel Mac OS X 10_14_6) AppleWebKit/605.1.15 (KHTML, like Gecko) Version/13.0.1 Safari/605.1.15"
127.0.0.1 - - [08/Oct/2019:12:43:46 +0200] "GET /person?id=3 HTTP/1.1" 200 25 "-" "Mozilla/5.0 (Macintosh; Intel Mac OS X 10_14_6) AppleWebKit/605.1.15 (KHTML, like Gecko) Version/13.0.1 Safari/605.1.15"
127.0.0.1 - - [08/Oct/2019:12:43:46 +0200] "GET /person?id=3 HTTP/1.1" 200 25 "-" "Mozilla/5.0 (Macintosh; Intel Mac OS X 10_14_6) AppleWebKit/605.1.15 (KHTML, like Gecko) Version/13.0.1 Safari/605.1.15"
127.0.0.1 - - [08/Oct/2019:12:43:45 +0200] "GET /person?id=asdas HTTP/1.1" 200 - "-" "Mozilla/5.0 (Macintosh; Intel Mac OS X 10_14_6) AppleWebKit/605.1.15 (KHTML, like Gecko) Version/13.0.1 Safari/605.1.15"
127.0.0.1 - - [08/Oct/2019:12:43:47 +0200] "GET /person?id=3 HTTP/1.1" 200 25 "-" "Mozilla/5.0 (Macintosh; Intel Mac OS X 10_14_6) AppleWebKit/605.1.15 (KHTML, like Gecko) Version/13.0.1 Safari/605.1.15"
127.0.0.1 - - [08/Oct/2019:12:46:29 +0200] "GET /person?id=3 HTTP/1.1" 200 463 "-" "Mozilla/5.0 (Macintosh; Intel Mac OS X 10_14_6) AppleWebKit/605.1.15 (KHTML, like Gecko) Version/13.0.1 Safari/605.1.15"
127.0.0.1 - - [08/Oct/2019:12:47:06 +0200] "GET /person?id=3 HTTP/1.1" 200 463 "-" "Mozilla/5.0 (Macintosh; Intel Mac OS X 10_14_6) AppleWebKit/605.1.15 (KHTML, like Gecko) Version/13.0.1 Safari/605.1.15"
127.0.0.1 - - [08/Oct/2019:12:47:11 +0200] "GET /person?id=3 HTTP/1.1" 200 464 "-" "Mozilla/5.0 (Macintosh; Intel Mac OS X 10_14_6) AppleWebKit/605.1.15 (KHTML, like Gecko) Version/13.0.1 Safari/605.1.15"
127.0.0.1 - - [08/Oct/2019:12:52:35 +0200] "GET /person?id=3 HTTP/1.1" 200 26 "-" "Mozilla/5.0 (Macintosh; Intel Mac OS X 10_14_6) AppleWebKit/605.1.15 (KHTML, like Gecko) Version/13.0.1 Safari/605.1.15"
127.0.0.1 - - [08/Oct/2019:12:52:37 +0200] "GET /person?id=3 HTTP/1.1" 200 26 "-" "Mozilla/5.0 (Macintosh; Intel Mac OS X 10_14_6) AppleWebKit/605.1.15 (KHTML, like Gecko) Version/13.0.1 Safari/605.1.15"
127.0.0.1 - - [08/Oct/2019:12:52:43 +0200] "GET /person?id=2 HTTP/1.1" 200 171 "-" "Mozilla/5.0 (Macintosh; Intel Mac OS X 10_14_6) AppleWebKit/605.1.15 (KHTML, like Gecko) Version/13.0.1 Safari/605.1.15"
127.0.0.1 - - [08/Oct/2019:12:52:43 +0200] "GET /person?id=2 HTTP/1.1" 200 171 "-" "Mozilla/5.0 (Macintosh; Intel Mac OS X 10_14_6) AppleWebKit/605.1.15 (KHTML, like Gecko) Version/13.0.1 Safari/605.1.15"
127.0.0.1 - - [08/Oct/2019:12:52:42 +0200] "GET /person?id=asdas HTTP/1.1" 200 - "-" "Mozilla/5.0 (Macintosh; Intel Mac OS X 10_14_6) AppleWebKit/605.1.15 (KHTML, like Gecko) Version/13.0.1 Safari/605.1.15"
127.0.0.1 - - [08/Oct/2019:12:52:46 +0200] "GET /person?id=14 HTTP/1.1" 200 27 "-" "Mozilla/5.0 (Macintosh; Intel Mac OS X 10_14_6) AppleWebKit/605.1.15 (KHTML, like Gecko) Version/13.0.1 Safari/605.1.15"
127.0.0.1 - - [08/Oct/2019:12:52:46 +0200] "GET /person?id=asdas HTTP/1.1" 200 - "-" "Mozilla/5.0 (Macintosh; Intel Mac OS X 10_14_6) AppleWebKit/605.1.15 (KHTML, like Gecko) Version/13.0.1 Safari/605.1.15"
127.0.0.1 - - [08/Oct/2019:12:52:46 +0200] "GET /favicon.ico HTTP/1.1" 200 - "https://twig.daw2m.com/person?id=14" "Mozilla/5.0 (Macintosh; Intel Mac OS X 10_14_6) AppleWebKit/605.1.15 (KHTML, like Gecko) Version/13.0.1 Safari/605.1.15"
127.0.0.1 - - [08/Oct/2019:12:52:50 +0200] "GET /person?id=1 HTTP/1.1" 200 173 "-" "Mozilla/5.0 (Macintosh; Intel Mac OS X 10_14_6) AppleWebKit/605.1.15 (KHTML, like Gecko) Version/13.0.1 Safari/605.1.15"
127.0.0.1 - - [08/Oct/2019:12:52:50 +0200] "GET /person?id=1 HTTP/1.1" 200 173 "-" "Mozilla/5.0 (Macintosh; Intel Mac OS X 10_14_6) AppleWebKit/605.1.15 (KHTML, like Gecko) Version/13.0.1 Safari/605.1.15"
127.0.0.1 - - [08/Oct/2019:12:55:38 +0200] "GET /person?id=1 HTTP/1.1" 200 1141 "-" "Mozilla/5.0 (Macintosh; Intel Mac OS X 10_14_6) AppleWebKit/605.1.15 (KHTML, like Gecko) Version/13.0.1 Safari/605.1.15"
127.0.0.1 - - [08/Oct/2019:12:58:43 +0200] "GET /person?id=1 HTTP/1.1" 200 1141 "-" "Mozilla/5.0 (Macintosh; Intel Mac OS X 10_14_6) AppleWebKit/605.1.15 (KHTML, like Gecko) Version/13.0.1 Safari/605.1.15"
127.0.0.1 - - [08/Oct/2019:12:58:44 +0200] "GET /persons HTTP/1.1" 200 1375 "-" "Mozilla/5.0 (Macintosh; Intel Mac OS X 10_14_6) AppleWebKit/605.1.15 (KHTML, like Gecko) Version/13.0.1 Safari/605.1.15"
127.0.0.1 - - [08/Oct/2019:12:58:43 +0200] "GET /person HTTP/1.1" 200 - "-" "Mozilla/5.0 (Macintosh; Intel Mac OS X 10_14_6) AppleWebKit/605.1.15 (KHTML, like Gecko) Version/13.0.1 Safari/605.1.15"
127.0.0.1 - - [08/Oct/2019:12:58:44 +0200] "GET /favicon.ico HTTP/1.1" 200 - "https://twig.daw2m.com/persons" "Mozilla/5.0 (Macintosh; Intel Mac OS X 10_14_6) AppleWebKit/605.1.15 (KHTML, like Gecko) Version/13.0.1 Safari/605.1.15"
127.0.0.1 - - [08/Oct/2019:12:58:45 +0200] "GET /persons HTTP/1.1" 200 1375 "-" "Mozilla/5.0 (Macintosh; Intel Mac OS X 10_14_6) AppleWebKit/605.1.15 (KHTML, like Gecko) Version/13.0.1 Safari/605.1.15"
127.0.0.1 - - [08/Oct/2019:12:59:19 +0200] "GET /persons HTTP/1.1" 200 1359 "-" "Mozilla/5.0 (Macintosh; Intel Mac OS X 10_14_6) AppleWebKit/605.1.15 (KHTML, like Gecko) Version/13.0.1 Safari/605.1.15"
127.0.0.1 - - [08/Oct/2019:12:59:46 +0200] "GET /persons HTTP/1.1" 200 1381 "-" "Mozilla/5.0 (Macintosh; Intel Mac OS X 10_14_6) AppleWebKit/605.1.15 (KHTML, like Gecko) Version/13.0.1 Safari/605.1.15"
127.0.0.1 - - [08/Oct/2019:13:00:04 +0200] "GET /persons HTTP/1.1" 200 1425 "-" "Mozilla/5.0 (Macintosh; Intel Mac OS X 10_14_6) AppleWebKit/605.1.15 (KHTML, like Gecko) Version/13.0.1 Safari/605.1.15"
127.0.0.1 - - [08/Oct/2019:13:00:06 +0200] "GET /person?id=1 HTTP/1.1" 200 1141 "https://twig.daw2m.com/persons" "Mozilla/5.0 (Macintosh; Intel Mac OS X 10_14_6) AppleWebKit/605.1.15 (KHTML, like Gecko) Version/13.0.1 Safari/605.1.15"
127.0.0.1 - - [08/Oct/2019:13:00:08 +0200] "GET /person?id=2 HTTP/1.1" 200 1139 "https://twig.daw2m.com/persons" "Mozilla/5.0 (Macintosh; Intel Mac OS X 10_14_6) AppleWebKit/605.1.15 (KHTML, like Gecko) Version/13.0.1 Safari/605.1.15"
127.0.0.1 - - [08/Oct/2019:13:00:13 +0200] "GET /person?id=1 HTTP/1.1" 200 1141 "https://twig.daw2m.com/persons" "Mozilla/5.0 (Macintosh; Intel Mac OS X 10_14_6) AppleWebKit/605.1.15 (KHTML, like Gecko) Version/13.0.1 Safari/605.1.15"
127.0.0.1 - - [08/Oct/2019:13:00:15 +0200] "GET /person?id=2 HTTP/1.1" 200 1139 "https://twig.daw2m.com/persons" "Mozilla/5.0 (Macintosh; Intel Mac OS X 10_14_6) AppleWebKit/605.1.15 (KHTML, like Gecko) Version/13.0.1 Safari/605.1.15"
